(module pwr_reg (layer F.Cu) (tedit 5AB235D5)
  (descr "Through hole straight pin header, 2x08, 2.54mm pitch, double rows")
  (tags "Through hole pin header THT 2x08 2.54mm double row")
  (fp_text reference REF** (at 1.27 -2.33) (layer F.SilkS)
    (effects (font (size 1 1) (thickness 0.15)))
  )
  (fp_text value pwr_reg (at 8.0264 16.5862) (layer F.Fab)
    (effects (font (size 1 1) (thickness 0.15)))
  )
  (fp_line (start -1.1176 13.4112) (end -1.1684 1.3462) (layer F.Fab) (width 0.15))
  (fp_line (start 17.5768 13.4112) (end -1.1176 13.4112) (layer F.Fab) (width 0.15))
  (fp_line (start -1.1938 1.3462) (end 17.5768 1.3208) (layer F.Fab) (width 0.15))
  (fp_line (start 17.5768 1.3208) (end 17.5768 13.4112) (layer F.Fab) (width 0.15))
  (fp_line (start 4.35 -1.8) (end -1.8 -1.8) (layer F.CrtYd) (width 0.05))
  (fp_text user %R (at -6.1214 7.1628 90) (layer F.Fab)
    (effects (font (size 1 1) (thickness 0.15)))
  )
  (pad 3 thru_hole oval (at 16.3068 12.2174) (size 1.7 1.7) (drill 1) (layers *.Cu *.Mask))
  (pad 1 thru_hole oval (at 0 2.54) (size 1.7 1.7) (drill 1) (layers *.Cu *.Mask))
  (pad 4 thru_hole oval (at 16.3068 2.54) (size 1.7 1.7) (drill 1) (layers *.Cu *.Mask))
  (pad 2 thru_hole oval (at 0 12.2428) (size 1.7 1.7) (drill 1) (layers *.Cu *.Mask))
  (model ${KISYS3DMOD}/Pin_Headers.3dshapes/Pin_Header_Straight_2x08_Pitch2.54mm.wrl
    (at (xyz 0 0 0))
    (scale (xyz 1 1 1))
    (rotate (xyz 0 0 0))
  )
)
